<svg width="104" height="104" viewBox="0 0 104 104" fill="none" xmlns="http://www.w3.org/2000/svg">
<path d="M42.5745 8.93049L0 14.5291V49.9263H42.5745V8.93049ZM0 89.5972L42.5745 95.6569V53.9921H0V89.5972ZM47.2704 54.5247L47.4392 95.9492L103.919 103.918V54.5247H47.2704ZM103.919 0L47.6081 8.07966V49.738H103.919V0Z" fill="var(--c-3)"/>
</svg>
